/home/sherin/Videos/Gitlab/Example_Codes/Codes/Analog_ldr_2.0/Middlewares/Third_Party/LoRaWAN/LmHandler/NvmDataMgmt.c:52:6:NvmDataMgmtEvent	0	static
/home/sherin/Videos/Gitlab/Example_Codes/Codes/Analog_ldr_2.0/Middlewares/Third_Party/LoRaWAN/LmHandler/NvmDataMgmt.c:59:10:NvmDataMgmtStore	0	static
/home/sherin/Videos/Gitlab/Example_Codes/Codes/Analog_ldr_2.0/Middlewares/Third_Party/LoRaWAN/LmHandler/NvmDataMgmt.c:154:10:NvmDataMgmtRestore	0	static
/home/sherin/Videos/Gitlab/Example_Codes/Codes/Analog_ldr_2.0/Middlewares/Third_Party/LoRaWAN/LmHandler/NvmDataMgmt.c:221:6:NvmDataMgmtFactoryReset	0	static
